32,0.071008
64,0.012288
96,0.023552
128,0.046080
160,0.076800
192,0.130048
224,0.196608
256,0.302080
288,0.396288
320,0.541632
352,0.715680
384,0.892928
416,1.137568
448,1.435648
480,1.735680
512,2.031616
544,2.682880
576,3.133344
608,3.469312
640,3.899392
672,4.518912
704,5.803968
736,6.003712
768,6.687712
800,8.331264
832,9.883648
864,13.198336
896,16.501760
928,19.267584
960,19.816448
992,21.536768
1024,23.816193
1056,26.497025
1088,29.379583
1120,31.078400
1152,44.840961
1184,35.442688
1216,37.276672
1248,42.805248
1280,43.230209
1312,48.024574
1344,50.845695
1376,62.566399
1408,58.778625
1440,64.237534
1472,68.133888
1504,72.270851
1536,77.111298
1568,82.785278
1600,90.823677
1632,94.467903
1664,102.722557
1696,105.629700
1728,115.718147
1760,120.211456
1792,127.374275
1824,136.924164
1856,141.604858
1888,151.653381
1920,157.031204
1952,165.432327
1984,171.427841
2016,176.146439
2048,185.047043
2080,195.642365
2112,206.190598
2144,219.988998
2176,229.756927
2208,237.984772
2240,250.455048
2272,261.700623
2304,273.072174
2336,284.121094
2368,297.363464
2400,309.591034
2432,320.692230
2464,332.567566
2496,350.368011
2528,361.005066
2560,372.464630
2592,389.677307
2624,403.481567
2656,419.371002
2688,431.738892
2720,451.419037
2752,465.186829
2784,482.754547
2816,495.725555
2848,514.661377
2880,535.051270
2912,552.322021
2944,568.578064
2976,587.088867
3008,607.060974
3040,625.472473
3072,647.511047
3104,666.367004
3136,687.833069
3168,711.687195
3200,729.130981
3232,756.278259
3264,775.501831
3296,801.927185
3328,820.242432
3360,860.747803
3392,872.211426
3424,895.307800
3456,916.225037
3488,943.623169
3520,972.394470
3552,998.967285
3584,1014.222839
3616,1048.710083
3648,1082.981323
3680,1109.261353
3712,1135.314941
3744,1167.517700
3776,1198.666748
3808,1229.979614
3840,1252.536377
3872,1279.712280
3904,1295.023071
3936,1320.820679
3968,1337.901001
4000,1358.047241
4032,1383.875610
4064,1409.641357
4096,1434.829834
4128,1476.226074
4160,1521.215454
4192,1534.432251
4224,1572.894531
4256,1622.871094
4288,1681.454102
4320,1765.411865
4352,1779.382324
4384,1830.775757
4416,1870.405640
4448,1917.812744
4480,1948.774414
4512,1996.905518
4544,2039.703491
4576,2090.992676
4608,2108.793945
4640,2168.101807
4672,2220.959717
4704,2270.834473
4736,2301.744141
4768,2357.932129
4800,2405.007324
4832,2458.121338
4864,2496.024658
4896,2555.588623
4928,2605.991943
4960,2658.172852
4992,2692.853760
5024,2752.974854
5056,2809.702393
5088,2867.625000
5120,2938.581055
5152,2970.945557
5184,3035.276123
5216,3092.626465
5248,3131.078613
5280,3205.696533
5312,3265.950684
5344,3339.363281
5376,3368.374268
5408,3446.502441
5440,3520.326660
5472,3583.537109
5504,3630.863281
5536,3702.976562
5568,3766.104980
5600,3839.303711
5632,3882.169434
5664,3960.572754
5696,4027.235352
5728,4107.513672
5760,4155.551758
5792,4243.910645
5824,4322.181152
5856,4382.006348
5888,4422.209473
5920,4522.627930
5952,4594.070312
5984,4676.292480
6016,4724.237305
6048,4825.580566
6080,4879.607910
6112,4962.148438
6144,5065.070801
6176,5124.746094
6208,5199.128418
6240,5303.004883
6272,5360.915527
6304,5461.812988
6336,5548.533691
6368,5639.575684
6400,5675.889648
6432,5823.820801
6464,5896.120117
6496,5996.471191
6528,6059.676758
6560,6150.722168
6592,6260.946777
6624,6347.493164
6656,6416.454590
6688,6532.096191
6720,6628.408203
6752,6738.453613
6784,6961.532715
6816,7067.596680
6848,7170.374512
6880,7281.664062
6912,7342.555176
6944,7477.799805
6976,7602.318359
7008,7736.654785
7040,7793.480469
7072,7901.051758
7104,8000.494629
7136,8118.171875
7168,8262.618164
7200,8316.096680
7232,8433.417969
7264,8576.951172
7296,8650.762695
7328,8802.955078
7360,8899.788086
7392,9056.480469
7424,9114.112305
7456,9279.056641
7488,9403.347656
7520,9532.401367
7552,9602.949219
7584,9772.673828
7616,9896.059570
7648,10027.469727
7680,10058.875977
7712,10250.494141
7744,10447.084961
7776,10587.770508
7808,10391.084961
7840,10561.285156
7872,10692.948242
7904,10812.254883
7936,10872.606445
7968,11068.897461
8000,11206.512695
8032,11374.751953
8064,11475.044922
8096,11625.381836
8128,11789.416992
8160,11913.214844
8192,12036.746094
8224,12133.380859
